** Curved panel model written from Python. Height is defined by the relation 
** z = (H/t)*t*(x - L/2)^2/(L/2)^2 where H/t is the ratio of rise to thickness.
**
** Key parameters for this model:
**
** E = 7.100E+10
** rho = 2.700E+03
** t = 1.000000E-03
** nu = 0.330
**
** Rise ratio is H/t = 5.000
** Length is 0.500 with 50 elements along the length.
** Width is 0.050 with 4 elements along the width.
**
**
*Part, name=CurvedPanel
*Node
1, 0.000000E+00, 0.000000E+00, 0.000000E+00
2, 1.000000E-02, 0.000000E+00, 3.920000E-04
3, 2.000000E-02, 0.000000E+00, 7.680000E-04
4, 3.000000E-02, 0.000000E+00, 1.128000E-03
5, 4.000000E-02, 0.000000E+00, 1.472000E-03
6, 5.000000E-02, 0.000000E+00, 1.800000E-03
7, 6.000000E-02, 0.000000E+00, 2.112000E-03
8, 7.000000E-02, 0.000000E+00, 2.408000E-03
9, 8.000000E-02, 0.000000E+00, 2.688000E-03
10, 9.000000E-02, 0.000000E+00, 2.952000E-03
11, 1.000000E-01, 0.000000E+00, 3.200000E-03
12, 1.100000E-01, 0.000000E+00, 3.432000E-03
13, 1.200000E-01, 0.000000E+00, 3.648000E-03
14, 1.300000E-01, 0.000000E+00, 3.848000E-03
15, 1.400000E-01, 0.000000E+00, 4.032000E-03
16, 1.500000E-01, 0.000000E+00, 4.200000E-03
17, 1.600000E-01, 0.000000E+00, 4.352000E-03
18, 1.700000E-01, 0.000000E+00, 4.488000E-03
19, 1.800000E-01, 0.000000E+00, 4.608000E-03
20, 1.900000E-01, 0.000000E+00, 4.712000E-03
21, 2.000000E-01, 0.000000E+00, 4.800000E-03
22, 2.100000E-01, 0.000000E+00, 4.872000E-03
23, 2.200000E-01, 0.000000E+00, 4.928000E-03
24, 2.300000E-01, 0.000000E+00, 4.968000E-03
25, 2.400000E-01, 0.000000E+00, 4.992000E-03
26, 2.500000E-01, 0.000000E+00, 5.000000E-03
27, 2.600000E-01, 0.000000E+00, 4.992000E-03
28, 2.700000E-01, 0.000000E+00, 4.968000E-03
29, 2.800000E-01, 0.000000E+00, 4.928000E-03
30, 2.900000E-01, 0.000000E+00, 4.872000E-03
31, 3.000000E-01, 0.000000E+00, 4.800000E-03
32, 3.100000E-01, 0.000000E+00, 4.712000E-03
33, 3.200000E-01, 0.000000E+00, 4.608000E-03
34, 3.300000E-01, 0.000000E+00, 4.488000E-03
35, 3.400000E-01, 0.000000E+00, 4.352000E-03
36, 3.500000E-01, 0.000000E+00, 4.200000E-03
37, 3.600000E-01, 0.000000E+00, 4.032000E-03
38, 3.700000E-01, 0.000000E+00, 3.848000E-03
39, 3.800000E-01, 0.000000E+00, 3.648000E-03
40, 3.900000E-01, 0.000000E+00, 3.432000E-03
41, 4.000000E-01, 0.000000E+00, 3.200000E-03
42, 4.100000E-01, 0.000000E+00, 2.952000E-03
43, 4.200000E-01, 0.000000E+00, 2.688000E-03
44, 4.300000E-01, 0.000000E+00, 2.408000E-03
45, 4.400000E-01, 0.000000E+00, 2.112000E-03
46, 4.500000E-01, 0.000000E+00, 1.800000E-03
47, 4.600000E-01, 0.000000E+00, 1.472000E-03
48, 4.700000E-01, 0.000000E+00, 1.128000E-03
49, 4.800000E-01, 0.000000E+00, 7.680000E-04
50, 4.900000E-01, 0.000000E+00, 3.920000E-04
51, 5.000000E-01, 0.000000E+00, 0.000000E+00
52, 0.000000E+00, 1.250000E-02, 0.000000E+00
53, 1.000000E-02, 1.250000E-02, 3.920000E-04
54, 2.000000E-02, 1.250000E-02, 7.680000E-04
55, 3.000000E-02, 1.250000E-02, 1.128000E-03
56, 4.000000E-02, 1.250000E-02, 1.472000E-03
57, 5.000000E-02, 1.250000E-02, 1.800000E-03
58, 6.000000E-02, 1.250000E-02, 2.112000E-03
59, 7.000000E-02, 1.250000E-02, 2.408000E-03
60, 8.000000E-02, 1.250000E-02, 2.688000E-03
61, 9.000000E-02, 1.250000E-02, 2.952000E-03
62, 1.000000E-01, 1.250000E-02, 3.200000E-03
63, 1.100000E-01, 1.250000E-02, 3.432000E-03
64, 1.200000E-01, 1.250000E-02, 3.648000E-03
65, 1.300000E-01, 1.250000E-02, 3.848000E-03
66, 1.400000E-01, 1.250000E-02, 4.032000E-03
67, 1.500000E-01, 1.250000E-02, 4.200000E-03
68, 1.600000E-01, 1.250000E-02, 4.352000E-03
69, 1.700000E-01, 1.250000E-02, 4.488000E-03
70, 1.800000E-01, 1.250000E-02, 4.608000E-03
71, 1.900000E-01, 1.250000E-02, 4.712000E-03
72, 2.000000E-01, 1.250000E-02, 4.800000E-03
73, 2.100000E-01, 1.250000E-02, 4.872000E-03
74, 2.200000E-01, 1.250000E-02, 4.928000E-03
75, 2.300000E-01, 1.250000E-02, 4.968000E-03
76, 2.400000E-01, 1.250000E-02, 4.992000E-03
77, 2.500000E-01, 1.250000E-02, 5.000000E-03
78, 2.600000E-01, 1.250000E-02, 4.992000E-03
79, 2.700000E-01, 1.250000E-02, 4.968000E-03
80, 2.800000E-01, 1.250000E-02, 4.928000E-03
81, 2.900000E-01, 1.250000E-02, 4.872000E-03
82, 3.000000E-01, 1.250000E-02, 4.800000E-03
83, 3.100000E-01, 1.250000E-02, 4.712000E-03
84, 3.200000E-01, 1.250000E-02, 4.608000E-03
85, 3.300000E-01, 1.250000E-02, 4.488000E-03
86, 3.400000E-01, 1.250000E-02, 4.352000E-03
87, 3.500000E-01, 1.250000E-02, 4.200000E-03
88, 3.600000E-01, 1.250000E-02, 4.032000E-03
89, 3.700000E-01, 1.250000E-02, 3.848000E-03
90, 3.800000E-01, 1.250000E-02, 3.648000E-03
91, 3.900000E-01, 1.250000E-02, 3.432000E-03
92, 4.000000E-01, 1.250000E-02, 3.200000E-03
93, 4.100000E-01, 1.250000E-02, 2.952000E-03
94, 4.200000E-01, 1.250000E-02, 2.688000E-03
95, 4.300000E-01, 1.250000E-02, 2.408000E-03
96, 4.400000E-01, 1.250000E-02, 2.112000E-03
97, 4.500000E-01, 1.250000E-02, 1.800000E-03
98, 4.600000E-01, 1.250000E-02, 1.472000E-03
99, 4.700000E-01, 1.250000E-02, 1.128000E-03
100, 4.800000E-01, 1.250000E-02, 7.680000E-04
101, 4.900000E-01, 1.250000E-02, 3.920000E-04
102, 5.000000E-01, 1.250000E-02, 0.000000E+00
103, 0.000000E+00, 2.500000E-02, 0.000000E+00
104, 1.000000E-02, 2.500000E-02, 3.920000E-04
105, 2.000000E-02, 2.500000E-02, 7.680000E-04
106, 3.000000E-02, 2.500000E-02, 1.128000E-03
107, 4.000000E-02, 2.500000E-02, 1.472000E-03
108, 5.000000E-02, 2.500000E-02, 1.800000E-03
109, 6.000000E-02, 2.500000E-02, 2.112000E-03
110, 7.000000E-02, 2.500000E-02, 2.408000E-03
111, 8.000000E-02, 2.500000E-02, 2.688000E-03
112, 9.000000E-02, 2.500000E-02, 2.952000E-03
113, 1.000000E-01, 2.500000E-02, 3.200000E-03
114, 1.100000E-01, 2.500000E-02, 3.432000E-03
115, 1.200000E-01, 2.500000E-02, 3.648000E-03
116, 1.300000E-01, 2.500000E-02, 3.848000E-03
117, 1.400000E-01, 2.500000E-02, 4.032000E-03
118, 1.500000E-01, 2.500000E-02, 4.200000E-03
119, 1.600000E-01, 2.500000E-02, 4.352000E-03
120, 1.700000E-01, 2.500000E-02, 4.488000E-03
121, 1.800000E-01, 2.500000E-02, 4.608000E-03
122, 1.900000E-01, 2.500000E-02, 4.712000E-03
123, 2.000000E-01, 2.500000E-02, 4.800000E-03
124, 2.100000E-01, 2.500000E-02, 4.872000E-03
125, 2.200000E-01, 2.500000E-02, 4.928000E-03
126, 2.300000E-01, 2.500000E-02, 4.968000E-03
127, 2.400000E-01, 2.500000E-02, 4.992000E-03
128, 2.500000E-01, 2.500000E-02, 5.000000E-03
129, 2.600000E-01, 2.500000E-02, 4.992000E-03
130, 2.700000E-01, 2.500000E-02, 4.968000E-03
131, 2.800000E-01, 2.500000E-02, 4.928000E-03
132, 2.900000E-01, 2.500000E-02, 4.872000E-03
133, 3.000000E-01, 2.500000E-02, 4.800000E-03
134, 3.100000E-01, 2.500000E-02, 4.712000E-03
135, 3.200000E-01, 2.500000E-02, 4.608000E-03
136, 3.300000E-01, 2.500000E-02, 4.488000E-03
137, 3.400000E-01, 2.500000E-02, 4.352000E-03
138, 3.500000E-01, 2.500000E-02, 4.200000E-03
139, 3.600000E-01, 2.500000E-02, 4.032000E-03
140, 3.700000E-01, 2.500000E-02, 3.848000E-03
141, 3.800000E-01, 2.500000E-02, 3.648000E-03
142, 3.900000E-01, 2.500000E-02, 3.432000E-03
143, 4.000000E-01, 2.500000E-02, 3.200000E-03
144, 4.100000E-01, 2.500000E-02, 2.952000E-03
145, 4.200000E-01, 2.500000E-02, 2.688000E-03
146, 4.300000E-01, 2.500000E-02, 2.408000E-03
147, 4.400000E-01, 2.500000E-02, 2.112000E-03
148, 4.500000E-01, 2.500000E-02, 1.800000E-03
149, 4.600000E-01, 2.500000E-02, 1.472000E-03
150, 4.700000E-01, 2.500000E-02, 1.128000E-03
151, 4.800000E-01, 2.500000E-02, 7.680000E-04
152, 4.900000E-01, 2.500000E-02, 3.920000E-04
153, 5.000000E-01, 2.500000E-02, 0.000000E+00
154, 0.000000E+00, 3.750000E-02, 0.000000E+00
155, 1.000000E-02, 3.750000E-02, 3.920000E-04
156, 2.000000E-02, 3.750000E-02, 7.680000E-04
157, 3.000000E-02, 3.750000E-02, 1.128000E-03
158, 4.000000E-02, 3.750000E-02, 1.472000E-03
159, 5.000000E-02, 3.750000E-02, 1.800000E-03
160, 6.000000E-02, 3.750000E-02, 2.112000E-03
161, 7.000000E-02, 3.750000E-02, 2.408000E-03
162, 8.000000E-02, 3.750000E-02, 2.688000E-03
163, 9.000000E-02, 3.750000E-02, 2.952000E-03
164, 1.000000E-01, 3.750000E-02, 3.200000E-03
165, 1.100000E-01, 3.750000E-02, 3.432000E-03
166, 1.200000E-01, 3.750000E-02, 3.648000E-03
167, 1.300000E-01, 3.750000E-02, 3.848000E-03
168, 1.400000E-01, 3.750000E-02, 4.032000E-03
169, 1.500000E-01, 3.750000E-02, 4.200000E-03
170, 1.600000E-01, 3.750000E-02, 4.352000E-03
171, 1.700000E-01, 3.750000E-02, 4.488000E-03
172, 1.800000E-01, 3.750000E-02, 4.608000E-03
173, 1.900000E-01, 3.750000E-02, 4.712000E-03
174, 2.000000E-01, 3.750000E-02, 4.800000E-03
175, 2.100000E-01, 3.750000E-02, 4.872000E-03
176, 2.200000E-01, 3.750000E-02, 4.928000E-03
177, 2.300000E-01, 3.750000E-02, 4.968000E-03
178, 2.400000E-01, 3.750000E-02, 4.992000E-03
179, 2.500000E-01, 3.750000E-02, 5.000000E-03
180, 2.600000E-01, 3.750000E-02, 4.992000E-03
181, 2.700000E-01, 3.750000E-02, 4.968000E-03
182, 2.800000E-01, 3.750000E-02, 4.928000E-03
183, 2.900000E-01, 3.750000E-02, 4.872000E-03
184, 3.000000E-01, 3.750000E-02, 4.800000E-03
185, 3.100000E-01, 3.750000E-02, 4.712000E-03
186, 3.200000E-01, 3.750000E-02, 4.608000E-03
187, 3.300000E-01, 3.750000E-02, 4.488000E-03
188, 3.400000E-01, 3.750000E-02, 4.352000E-03
189, 3.500000E-01, 3.750000E-02, 4.200000E-03
190, 3.600000E-01, 3.750000E-02, 4.032000E-03
191, 3.700000E-01, 3.750000E-02, 3.848000E-03
192, 3.800000E-01, 3.750000E-02, 3.648000E-03
193, 3.900000E-01, 3.750000E-02, 3.432000E-03
194, 4.000000E-01, 3.750000E-02, 3.200000E-03
195, 4.100000E-01, 3.750000E-02, 2.952000E-03
196, 4.200000E-01, 3.750000E-02, 2.688000E-03
197, 4.300000E-01, 3.750000E-02, 2.408000E-03
198, 4.400000E-01, 3.750000E-02, 2.112000E-03
199, 4.500000E-01, 3.750000E-02, 1.800000E-03
200, 4.600000E-01, 3.750000E-02, 1.472000E-03
201, 4.700000E-01, 3.750000E-02, 1.128000E-03
202, 4.800000E-01, 3.750000E-02, 7.680000E-04
203, 4.900000E-01, 3.750000E-02, 3.920000E-04
204, 5.000000E-01, 3.750000E-02, 0.000000E+00
205, 0.000000E+00, 5.000000E-02, 0.000000E+00
206, 1.000000E-02, 5.000000E-02, 3.920000E-04
207, 2.000000E-02, 5.000000E-02, 7.680000E-04
208, 3.000000E-02, 5.000000E-02, 1.128000E-03
209, 4.000000E-02, 5.000000E-02, 1.472000E-03
210, 5.000000E-02, 5.000000E-02, 1.800000E-03
211, 6.000000E-02, 5.000000E-02, 2.112000E-03
212, 7.000000E-02, 5.000000E-02, 2.408000E-03
213, 8.000000E-02, 5.000000E-02, 2.688000E-03
214, 9.000000E-02, 5.000000E-02, 2.952000E-03
215, 1.000000E-01, 5.000000E-02, 3.200000E-03
216, 1.100000E-01, 5.000000E-02, 3.432000E-03
217, 1.200000E-01, 5.000000E-02, 3.648000E-03
218, 1.300000E-01, 5.000000E-02, 3.848000E-03
219, 1.400000E-01, 5.000000E-02, 4.032000E-03
220, 1.500000E-01, 5.000000E-02, 4.200000E-03
221, 1.600000E-01, 5.000000E-02, 4.352000E-03
222, 1.700000E-01, 5.000000E-02, 4.488000E-03
223, 1.800000E-01, 5.000000E-02, 4.608000E-03
224, 1.900000E-01, 5.000000E-02, 4.712000E-03
225, 2.000000E-01, 5.000000E-02, 4.800000E-03
226, 2.100000E-01, 5.000000E-02, 4.872000E-03
227, 2.200000E-01, 5.000000E-02, 4.928000E-03
228, 2.300000E-01, 5.000000E-02, 4.968000E-03
229, 2.400000E-01, 5.000000E-02, 4.992000E-03
230, 2.500000E-01, 5.000000E-02, 5.000000E-03
231, 2.600000E-01, 5.000000E-02, 4.992000E-03
232, 2.700000E-01, 5.000000E-02, 4.968000E-03
233, 2.800000E-01, 5.000000E-02, 4.928000E-03
234, 2.900000E-01, 5.000000E-02, 4.872000E-03
235, 3.000000E-01, 5.000000E-02, 4.800000E-03
236, 3.100000E-01, 5.000000E-02, 4.712000E-03
237, 3.200000E-01, 5.000000E-02, 4.608000E-03
238, 3.300000E-01, 5.000000E-02, 4.488000E-03
239, 3.400000E-01, 5.000000E-02, 4.352000E-03
240, 3.500000E-01, 5.000000E-02, 4.200000E-03
241, 3.600000E-01, 5.000000E-02, 4.032000E-03
242, 3.700000E-01, 5.000000E-02, 3.848000E-03
243, 3.800000E-01, 5.000000E-02, 3.648000E-03
244, 3.900000E-01, 5.000000E-02, 3.432000E-03
245, 4.000000E-01, 5.000000E-02, 3.200000E-03
246, 4.100000E-01, 5.000000E-02, 2.952000E-03
247, 4.200000E-01, 5.000000E-02, 2.688000E-03
248, 4.300000E-01, 5.000000E-02, 2.408000E-03
249, 4.400000E-01, 5.000000E-02, 2.112000E-03
250, 4.500000E-01, 5.000000E-02, 1.800000E-03
251, 4.600000E-01, 5.000000E-02, 1.472000E-03
252, 4.700000E-01, 5.000000E-02, 1.128000E-03
253, 4.800000E-01, 5.000000E-02, 7.680000E-04
254, 4.900000E-01, 5.000000E-02, 3.920000E-04
255, 5.000000E-01, 5.000000E-02, 0.000000E+00
*Element, type=S4R
1, 1, 2, 53, 52
2, 2, 3, 54, 53
3, 3, 4, 55, 54
4, 4, 5, 56, 55
5, 5, 6, 57, 56
6, 6, 7, 58, 57
7, 7, 8, 59, 58
8, 8, 9, 60, 59
9, 9, 10, 61, 60
10, 10, 11, 62, 61
11, 11, 12, 63, 62
12, 12, 13, 64, 63
13, 13, 14, 65, 64
14, 14, 15, 66, 65
15, 15, 16, 67, 66
16, 16, 17, 68, 67
17, 17, 18, 69, 68
18, 18, 19, 70, 69
19, 19, 20, 71, 70
20, 20, 21, 72, 71
21, 21, 22, 73, 72
22, 22, 23, 74, 73
23, 23, 24, 75, 74
24, 24, 25, 76, 75
25, 25, 26, 77, 76
26, 26, 27, 78, 77
27, 27, 28, 79, 78
28, 28, 29, 80, 79
29, 29, 30, 81, 80
30, 30, 31, 82, 81
31, 31, 32, 83, 82
32, 32, 33, 84, 83
33, 33, 34, 85, 84
34, 34, 35, 86, 85
35, 35, 36, 87, 86
36, 36, 37, 88, 87
37, 37, 38, 89, 88
38, 38, 39, 90, 89
39, 39, 40, 91, 90
40, 40, 41, 92, 91
41, 41, 42, 93, 92
42, 42, 43, 94, 93
43, 43, 44, 95, 94
44, 44, 45, 96, 95
45, 45, 46, 97, 96
46, 46, 47, 98, 97
47, 47, 48, 99, 98
48, 48, 49, 100, 99
49, 49, 50, 101, 100
50, 50, 51, 102, 101
51, 52, 53, 104, 103
52, 53, 54, 105, 104
53, 54, 55, 106, 105
54, 55, 56, 107, 106
55, 56, 57, 108, 107
56, 57, 58, 109, 108
57, 58, 59, 110, 109
58, 59, 60, 111, 110
59, 60, 61, 112, 111
60, 61, 62, 113, 112
61, 62, 63, 114, 113
62, 63, 64, 115, 114
63, 64, 65, 116, 115
64, 65, 66, 117, 116
65, 66, 67, 118, 117
66, 67, 68, 119, 118
67, 68, 69, 120, 119
68, 69, 70, 121, 120
69, 70, 71, 122, 121
70, 71, 72, 123, 122
71, 72, 73, 124, 123
72, 73, 74, 125, 124
73, 74, 75, 126, 125
74, 75, 76, 127, 126
75, 76, 77, 128, 127
76, 77, 78, 129, 128
77, 78, 79, 130, 129
78, 79, 80, 131, 130
79, 80, 81, 132, 131
80, 81, 82, 133, 132
81, 82, 83, 134, 133
82, 83, 84, 135, 134
83, 84, 85, 136, 135
84, 85, 86, 137, 136
85, 86, 87, 138, 137
86, 87, 88, 139, 138
87, 88, 89, 140, 139
88, 89, 90, 141, 140
89, 90, 91, 142, 141
90, 91, 92, 143, 142
91, 92, 93, 144, 143
92, 93, 94, 145, 144
93, 94, 95, 146, 145
94, 95, 96, 147, 146
95, 96, 97, 148, 147
96, 97, 98, 149, 148
97, 98, 99, 150, 149
98, 99, 100, 151, 150
99, 100, 101, 152, 151
100, 101, 102, 153, 152
101, 103, 104, 155, 154
102, 104, 105, 156, 155
103, 105, 106, 157, 156
104, 106, 107, 158, 157
105, 107, 108, 159, 158
106, 108, 109, 160, 159
107, 109, 110, 161, 160
108, 110, 111, 162, 161
109, 111, 112, 163, 162
110, 112, 113, 164, 163
111, 113, 114, 165, 164
112, 114, 115, 166, 165
113, 115, 116, 167, 166
114, 116, 117, 168, 167
115, 117, 118, 169, 168
116, 118, 119, 170, 169
117, 119, 120, 171, 170
118, 120, 121, 172, 171
119, 121, 122, 173, 172
120, 122, 123, 174, 173
121, 123, 124, 175, 174
122, 124, 125, 176, 175
123, 125, 126, 177, 176
124, 126, 127, 178, 177
125, 127, 128, 179, 178
126, 128, 129, 180, 179
127, 129, 130, 181, 180
128, 130, 131, 182, 181
129, 131, 132, 183, 182
130, 132, 133, 184, 183
131, 133, 134, 185, 184
132, 134, 135, 186, 185
133, 135, 136, 187, 186
134, 136, 137, 188, 187
135, 137, 138, 189, 188
136, 138, 139, 190, 189
137, 139, 140, 191, 190
138, 140, 141, 192, 191
139, 141, 142, 193, 192
140, 142, 143, 194, 193
141, 143, 144, 195, 194
142, 144, 145, 196, 195
143, 145, 146, 197, 196
144, 146, 147, 198, 197
145, 147, 148, 199, 198
146, 148, 149, 200, 199
147, 149, 150, 201, 200
148, 150, 151, 202, 201
149, 151, 152, 203, 202
150, 152, 153, 204, 203
151, 154, 155, 206, 205
152, 155, 156, 207, 206
153, 156, 157, 208, 207
154, 157, 158, 209, 208
155, 158, 159, 210, 209
156, 159, 160, 211, 210
157, 160, 161, 212, 211
158, 161, 162, 213, 212
159, 162, 163, 214, 213
160, 163, 164, 215, 214
161, 164, 165, 216, 215
162, 165, 166, 217, 216
163, 166, 167, 218, 217
164, 167, 168, 219, 218
165, 168, 169, 220, 219
166, 169, 170, 221, 220
167, 170, 171, 222, 221
168, 171, 172, 223, 222
169, 172, 173, 224, 223
170, 173, 174, 225, 224
171, 174, 175, 226, 225
172, 175, 176, 227, 226
173, 176, 177, 228, 227
174, 177, 178, 229, 228
175, 178, 179, 230, 229
176, 179, 180, 231, 230
177, 180, 181, 232, 231
178, 181, 182, 233, 232
179, 182, 183, 234, 233
180, 183, 184, 235, 234
181, 184, 185, 236, 235
182, 185, 186, 237, 236
183, 186, 187, 238, 237
184, 187, 188, 239, 238
185, 188, 189, 240, 239
186, 189, 190, 241, 240
187, 190, 191, 242, 241
188, 191, 192, 243, 242
189, 192, 193, 244, 243
190, 193, 194, 245, 244
191, 194, 195, 246, 245
192, 195, 196, 247, 246
193, 196, 197, 248, 247
194, 197, 198, 249, 248
195, 198, 199, 250, 249
196, 199, 200, 251, 250
197, 200, 201, 252, 251
198, 201, 202, 253, 252
199, 202, 203, 254, 253
200, 203, 204, 255, 254
*Nset, nset=ends, generate
1, 205, 51
51, 255, 51
*Nset, nset=sides, generate
1, 51, 1
205, 255, 1
*Nset, nset=disp_monitor
127
*Elset, elset=all_elements, generate
1, 200, 1
*Shell Section, elset=all_elements, material=mat
1.000000E-03, 5
*End Part
*Assembly, name=Assembly
*Instance, name=panel, part=CurvedPanel
*End Instance
*Elset, elset=_wettedSurface, internal, instance=panel, generate
1, 200, 1
*Surface, type=element, name=wetted_surface
_wettedSurface, SPOS
*End Assembly
*Material, name=mat
*Density
2.700000E+03,
*Elastic
7.100000E+10, 0.330
*Boundary
panel.ends, PINNED
panel.sides, 2, 2
panel.sides, 4, 4
panel.sides, 6, 6
